Alpha:  0.1  Ypsillon:  0.1
Chosen path:  [(0, 0, 0), (0, 1, 1), (0, 2, 1), (0, 3, 1), (0, 4, 1), (1, 4, 1), (2, 4, 1), (3, 4, 1), (4, 4, 0)]
Total Cost:  0.9299999999999999
Time spent:  8.200371026992798

Alpha:  0.1  Ypsillon:  0.2
Chosen path:  [(0, 0, 0), (0, 1, 1), (0, 2, 1), (0, 3, 1), (0, 4, 1), (1, 4, 1), (2, 4, 1), (3, 4, 1), (4, 4, 0)]
Total Cost:  0.9299999999999999
Time spent:  8.748478174209595

Alpha:  0.1  Ypsillon:  0.3
Chosen path:  [(0, 0, 0), (0, 1, 1), (0, 2, 1), (0, 3, 1), (0, 4, 1), (1, 4, 1), (2, 4, 1), (3, 4, 1), (4, 4, 0)]
Total Cost:  0.9299999999999999
Time spent:  8.805108070373535

Alpha:  0.1  Ypsillon:  0.4
Chosen path:  [(0, 0, 0), (0, 1, 1), (0, 2, 1), (0, 3, 1), (0, 4, 1), (1, 4, 1), (2, 4, 1), (3, 4, 1), (4, 4, 0)]
Total Cost:  0.9299999999999999
Time spent:  8.21439790725708

Alpha:  0.1  Ypsillon:  0.5
Chosen path:  [(0, 0, 0), (0, 1, 1), (0, 2, 1), (0, 3, 1), (0, 4, 1), (1, 4, 1), (2, 4, 1), (3, 4, 1), (4, 4, 0)]
Total Cost:  0.9299999999999999
Time spent:  7.650371789932251

Alpha:  0.1  Ypsillon:  0.6
Chosen path:  [(0, 0, 0), (0, 1, 1), (0, 2, 1), (0, 3, 1), (0, 4, 1), (1, 4, 1), (2, 4, 1), (3, 4, 1), (4, 4, 0)]
Total Cost:  0.9299999999999999
Time spent:  8.534724712371826

Alpha:  0.1  Ypsillon:  0.7
Chosen path:  [(0, 0, 0), (0, 1, 1), (0, 2, 1), (0, 3, 1), (0, 4, 1), (1, 4, 1), (2, 4, 1), (3, 4, 1), (4, 4, 0)]
Total Cost:  0.9299999999999999
Time spent:  8.104809999465942

Alpha:  0.1  Ypsillon:  0.8
Chosen path:  [(0, 0, 0), (0, 1, 1), (0, 2, 1), (0, 3, 1), (0, 4, 1), (1, 4, 1), (2, 4, 1), (3, 4, 1), (4, 4, 0)]
Total Cost:  0.9299999999999999
Time spent:  8.165743112564087

Alpha:  0.1  Ypsillon:  0.9
Chosen path:  [(0, 0, 0), (0, 1, 1), (0, 2, 1), (0, 3, 1), (0, 4, 1), (1, 4, 1), (2, 4, 1), (3, 4, 1), (4, 4, 0)]
Total Cost:  0.9299999999999999
Time spent:  8.282317161560059

Alpha:  0.1  Ypsillon:  0.95
Chosen path:  [(0, 0, 0), (0, 1, 1), (0, 2, 1), (0, 3, 1), (0, 4, 1), (1, 4, 1), (2, 4, 1), (3, 4, 1), (4, 4, 0)]
Total Cost:  0.9299999999999999
Time spent:  7.957095146179199

Alpha:  0.1  Ypsillon:  1
Chosen path:  [(0, 0, 0), (0, 1, 1), (0, 2, 1), (0, 3, 1), (0, 4, 1), (1, 4, 1), (2, 4, 1), (3, 4, 1), (4, 4, 0)]
Total Cost:  0.9299999999999999
Time spent:  8.095881223678589

Alpha:  0.2  Ypsillon:  0.1
Chosen path:  [(0, 0, 0), (0, 1, 1), (0, 2, 1), (0, 3, 1), (0, 4, 1), (1, 4, 1), (2, 4, 1), (3, 4, 1), (4, 4, 0)]
Total Cost:  0.9299999999999999
Time spent:  7.742814064025879

Alpha:  0.2  Ypsillon:  0.2
Chosen path:  [(0, 0, 0), (0, 1, 1), (0, 2, 1), (0, 3, 1), (0, 4, 1), (1, 4, 1), (2, 4, 1), (3, 4, 1), (4, 4, 0)]
Total Cost:  0.9299999999999999
Time spent:  8.296021223068237

Alpha:  0.2  Ypsillon:  0.3
Chosen path:  [(0, 0, 0), (0, 1, 1), (0, 2, 1), (0, 3, 1), (0, 4, 1), (1, 4, 1), (2, 4, 1), (3, 4, 1), (4, 4, 0)]
Total Cost:  0.9299999999999999
Time spent:  8.082117080688477

Alpha:  0.2  Ypsillon:  0.4
Chosen path:  [(0, 0, 0), (0, 1, 1), (0, 2, 1), (0, 3, 1), (0, 4, 1), (1, 4, 1), (2, 4, 1), (3, 4, 1), (4, 4, 0)]
Total Cost:  0.9299999999999999
Time spent:  9.05820608139038

Alpha:  0.2  Ypsillon:  0.5
Chosen path:  [(0, 0, 0), (0, 1, 1), (0, 2, 1), (0, 3, 1), (0, 4, 1), (1, 4, 1), (2, 4, 1), (3, 4, 1), (4, 4, 0)]
Total Cost:  0.9299999999999999
Time spent:  10.539916038513184

Alpha:  0.2  Ypsillon:  0.6
Chosen path:  [(0, 0, 0), (0, 1, 1), (0, 2, 1), (0, 3, 1), (0, 4, 1), (1, 4, 1), (2, 4, 1), (3, 4, 1), (4, 4, 0)]
Total Cost:  0.9299999999999999
Time spent:  10.101340055465698

Alpha:  0.2  Ypsillon:  0.7
Chosen path:  [(0, 0, 0), (0, 1, 1), (0, 2, 1), (0, 3, 1), (0, 4, 1), (1, 4, 1), (2, 4, 1), (3, 4, 1), (4, 4, 0)]
Total Cost:  0.9299999999999999
Time spent:  8.332762718200684

Alpha:  0.2  Ypsillon:  0.8
Chosen path:  [(0, 0, 0), (0, 1, 1), (0, 2, 1), (0, 3, 1), (0, 4, 1), (1, 4, 1), (2, 4, 1), (3, 4, 1), (4, 4, 0)]
Total Cost:  0.9299999999999999
Time spent:  8.225106954574585

Alpha:  0.2  Ypsillon:  0.9
Chosen path:  [(0, 0, 0), (0, 1, 1), (0, 2, 1), (0, 3, 1), (0, 4, 1), (1, 4, 1), (2, 4, 1), (3, 4, 1), (4, 4, 0)]
Total Cost:  0.9299999999999999
Time spent:  8.117064952850342

Alpha:  0.2  Ypsillon:  0.95
Chosen path:  [(0, 0, 0), (0, 1, 1), (0, 2, 1), (0, 3, 1), (0, 4, 1), (1, 4, 1), (2, 4, 1), (3, 4, 1), (4, 4, 0)]
Total Cost:  0.9299999999999999
Time spent:  8.820214986801147

Alpha:  0.2  Ypsillon:  1
Chosen path:  [(0, 0, 0), (0, 1, 1), (0, 2, 1), (0, 3, 1), (0, 4, 1), (1, 4, 1), (2, 4, 1), (3, 4, 1), (4, 4, 0)]
Total Cost:  0.9299999999999999
Time spent:  8.592428207397461

Alpha:  0.3  Ypsillon:  0.1
Chosen path:  [(0, 0, 0), (0, 1, 1), (0, 2, 1), (0, 3, 1), (0, 4, 1), (1, 4, 1), (2, 4, 1), (3, 4, 1), (4, 4, 0)]
Total Cost:  0.9299999999999999
Time spent:  7.979340076446533

Alpha:  0.3  Ypsillon:  0.2
Chosen path:  [(0, 0, 0), (0, 1, 1), (0, 2, 1), (0, 3, 1), (0, 4, 1), (1, 4, 1), (2, 4, 1), (3, 4, 1), (4, 4, 0)]
Total Cost:  0.9299999999999999
Time spent:  9.798395872116089

Alpha:  0.3  Ypsillon:  0.3
Chosen path:  [(0, 0, 0), (0, 1, 1), (0, 2, 1), (0, 3, 1), (0, 4, 1), (1, 4, 1), (2, 4, 1), (3, 4, 1), (4, 4, 0)]
Total Cost:  0.9299999999999999
Time spent:  8.37247896194458

Alpha:  0.3  Ypsillon:  0.4
Chosen path:  [(0, 0, 0), (0, 1, 1), (0, 2, 1), (0, 3, 1), (0, 4, 1), (1, 4, 1), (2, 4, 1), (3, 4, 1), (4, 4, 0)]
Total Cost:  0.9299999999999999
Time spent:  9.313499927520752

Alpha:  0.3  Ypsillon:  0.5
Chosen path:  [(0, 0, 0), (0, 1, 1), (0, 2, 1), (0, 3, 1), (0, 4, 1), (1, 4, 1), (2, 4, 1), (3, 4, 1), (4, 4, 0)]
Total Cost:  0.9299999999999999
Time spent:  8.687914848327637

Alpha:  0.3  Ypsillon:  0.6
Chosen path:  [(0, 0, 0), (0, 1, 1), (0, 2, 1), (0, 3, 1), (0, 4, 1), (1, 4, 1), (2, 4, 1), (3, 4, 1), (4, 4, 0)]
Total Cost:  0.9299999999999999
Time spent:  9.04475998878479

Alpha:  0.3  Ypsillon:  0.7
Chosen path:  [(0, 0, 0), (0, 1, 1), (0, 2, 1), (0, 3, 1), (0, 4, 1), (1, 4, 1), (2, 4, 1), (3, 4, 1), (4, 4, 0)]
Total Cost:  0.9299999999999999
Time spent:  8.756884098052979

Alpha:  0.3  Ypsillon:  0.8
Chosen path:  [(0, 0, 0), (0, 1, 1), (0, 2, 1), (0, 3, 1), (0, 4, 1), (1, 4, 1), (2, 4, 1), (3, 4, 1), (4, 4, 0)]
Total Cost:  0.9299999999999999
Time spent:  8.893935918807983

Alpha:  0.3  Ypsillon:  0.9
Chosen path:  [(0, 0, 0), (0, 1, 1), (0, 2, 1), (0, 3, 1), (0, 4, 1), (1, 4, 1), (2, 4, 1), (3, 4, 1), (4, 4, 0)]
Total Cost:  0.9299999999999999
Time spent:  9.901939153671265

Alpha:  0.3  Ypsillon:  0.95
Chosen path:  [(0, 0, 0), (0, 1, 1), (0, 2, 1), (0, 3, 1), (0, 4, 1), (1, 4, 1), (2, 4, 1), (3, 4, 1), (4, 4, 0)]
Total Cost:  0.9299999999999999
Time spent:  8.30173921585083

Alpha:  0.3  Ypsillon:  1
Chosen path:  [(0, 0, 0), (0, 1, 1), (0, 2, 1), (0, 3, 1), (0, 4, 1), (1, 4, 1), (2, 4, 1), (3, 4, 1), (4, 4, 0)]
Total Cost:  0.9299999999999999
Time spent:  10.320249080657959

Alpha:  0.4  Ypsillon:  0.1
Chosen path:  [(0, 0, 0), (0, 1, 1), (0, 2, 1), (0, 3, 1), (0, 4, 1), (1, 4, 1), (2, 4, 1), (3, 4, 1), (4, 4, 0)]
Total Cost:  0.9299999999999999
Time spent:  9.4705491065979

Alpha:  0.4  Ypsillon:  0.2
Chosen path:  [(0, 0, 0), (0, 1, 1), (1, 1, 1), (1, 2, 1), (1, 3, 1), (1, 4, 1), (2, 4, 1), (3, 4, 1), (4, 4, 0)]
Total Cost:  0.9299999999999999
Time spent:  8.427738666534424

Alpha:  0.4  Ypsillon:  0.3
Chosen path:  [(0, 0, 0), (0, 1, 1), (0, 2, 1), (0, 3, 1), (0, 4, 1), (1, 4, 1), (2, 4, 1), (3, 4, 1), (4, 4, 0)]
Total Cost:  0.9299999999999999
Time spent:  8.270412921905518

Alpha:  0.4  Ypsillon:  0.4
Chosen path:  [(0, 0, 0), (0, 1, 1), (0, 2, 1), (0, 3, 1), (0, 4, 1), (1, 4, 1), (2, 4, 1), (3, 4, 1), (4, 4, 0)]
Total Cost:  0.9299999999999999
Time spent:  8.382991790771484

Alpha:  0.4  Ypsillon:  0.5
Chosen path:  [(0, 0, 0), (0, 1, 1), (0, 2, 1), (0, 3, 1), (0, 4, 1), (1, 4, 1), (2, 4, 1), (3, 4, 1), (4, 4, 0)]
Total Cost:  0.9299999999999999
Time spent:  8.31196403503418

Alpha:  0.4  Ypsillon:  0.6
Chosen path:  [(0, 0, 0), (0, 1, 1), (0, 2, 1), (0, 3, 1), (0, 4, 1), (1, 4, 1), (2, 4, 1), (3, 4, 1), (4, 4, 0)]
Total Cost:  0.9299999999999999
Time spent:  8.928308010101318

Alpha:  0.4  Ypsillon:  0.7
Chosen path:  [(0, 0, 0), (0, 1, 1), (0, 2, 1), (0, 3, 1), (0, 4, 1), (1, 4, 1), (2, 4, 1), (3, 4, 1), (4, 4, 0)]
Total Cost:  0.9299999999999999
Time spent:  8.443517923355103

Alpha:  0.4  Ypsillon:  0.8
Chosen path:  [(0, 0, 0), (0, 1, 1), (0, 2, 1), (0, 3, 1), (0, 4, 1), (1, 4, 1), (2, 4, 1), (3, 4, 1), (4, 4, 0)]
Total Cost:  0.9299999999999999
Time spent:  8.374449253082275

Alpha:  0.4  Ypsillon:  0.9
Chosen path:  [(0, 0, 0), (0, 1, 1), (0, 2, 1), (0, 3, 1), (0, 4, 1), (1, 4, 1), (2, 4, 1), (3, 4, 1), (4, 4, 0)]
Total Cost:  0.9299999999999999
Time spent:  8.279608964920044

Alpha:  0.4  Ypsillon:  0.95
Chosen path:  [(0, 0, 0), (0, 1, 1), (0, 2, 1), (0, 3, 1), (0, 4, 1), (1, 4, 1), (2, 4, 1), (3, 4, 1), (4, 4, 0)]
Total Cost:  0.9299999999999999
Time spent:  8.293786764144897

Alpha:  0.4  Ypsillon:  1
Chosen path:  [(0, 0, 0), (0, 1, 1), (0, 2, 1), (0, 3, 1), (0, 4, 1), (1, 4, 1), (2, 4, 1), (3, 4, 1), (4, 4, 0)]
Total Cost:  0.9299999999999999
Time spent:  8.862762928009033

Alpha:  0.5  Ypsillon:  0.1
Chosen path:  [(0, 0, 0), (0, 1, 1), (0, 2, 1), (0, 3, 1), (0, 4, 1), (1, 4, 1), (2, 4, 1), (3, 4, 1), (4, 4, 0)]
Total Cost:  0.9299999999999999
Time spent:  8.150949001312256

Alpha:  0.5  Ypsillon:  0.2
Chosen path:  [(0, 0, 0), (0, 1, 1), (0, 2, 1), (1, 2, 1), (1, 3, 1), (1, 4, 1), (2, 4, 1), (3, 4, 1), (4, 4, 0)]
Total Cost:  0.9299999999999999
Time spent:  8.630088090896606

Alpha:  0.5  Ypsillon:  0.3
Chosen path:  [(0, 0, 0), (0, 1, 1), (0, 2, 1), (0, 3, 1), (0, 4, 1), (1, 4, 1), (2, 4, 1), (3, 4, 1), (4, 4, 0)]
Total Cost:  0.9299999999999999
Time spent:  8.477848052978516

Alpha:  0.5  Ypsillon:  0.4
Chosen path:  [(0, 0, 0), (0, 1, 1), (0, 2, 1), (0, 3, 1), (0, 4, 1), (1, 4, 1), (2, 4, 1), (3, 4, 1), (4, 4, 0)]
Total Cost:  0.9299999999999999
Time spent:  8.261789798736572

Alpha:  0.5  Ypsillon:  0.5
Chosen path:  [(0, 0, 0), (0, 1, 1), (0, 2, 1), (0, 3, 1), (0, 4, 1), (1, 4, 1), (2, 4, 1), (3, 4, 1), (4, 4, 0)]
Total Cost:  0.9299999999999999
Time spent:  8.342521905899048

Alpha:  0.5  Ypsillon:  0.6
Chosen path:  [(0, 0, 0), (0, 1, 1), (0, 2, 1), (0, 3, 1), (0, 4, 1), (1, 4, 1), (2, 4, 1), (3, 4, 1), (4, 4, 0)]
Total Cost:  0.9299999999999999
Time spent:  8.02825403213501

Alpha:  0.5  Ypsillon:  0.7
Chosen path:  [(0, 0, 0), (0, 1, 1), (0, 2, 1), (0, 3, 1), (0, 4, 1), (1, 4, 1), (2, 4, 1), (3, 4, 1), (4, 4, 0)]
Total Cost:  0.9299999999999999
Time spent:  8.526009798049927

Alpha:  0.5  Ypsillon:  0.8
Chosen path:  [(0, 0, 0), (0, 1, 1), (0, 2, 1), (0, 3, 1), (0, 4, 1), (1, 4, 1), (2, 4, 1), (3, 4, 1), (4, 4, 0)]
Total Cost:  0.9299999999999999
Time spent:  8.108639001846313

Alpha:  0.5  Ypsillon:  0.9
Chosen path:  [(0, 0, 0), (0, 1, 1), (0, 2, 1), (0, 3, 1), (0, 4, 1), (1, 4, 1), (2, 4, 1), (3, 4, 1), (4, 4, 0)]
Total Cost:  0.9299999999999999
Time spent:  8.131850004196167

Alpha:  0.5  Ypsillon:  0.95
Chosen path:  [(0, 0, 0), (0, 1, 1), (0, 2, 1), (0, 3, 1), (0, 4, 1), (1, 4, 1), (2, 4, 1), (3, 4, 1), (4, 4, 0)]
Total Cost:  0.9299999999999999
Time spent:  8.053806781768799

Alpha:  0.5  Ypsillon:  1
Chosen path:  [(0, 0, 0), (0, 1, 1), (0, 2, 1), (0, 3, 1), (0, 4, 1), (1, 4, 1), (2, 4, 1), (3, 4, 1), (4, 4, 0)]
Total Cost:  0.9299999999999999
Time spent:  8.294270992279053

Alpha:  0.6  Ypsillon:  0.1
Chosen path:  [(0, 0, 0), (0, 1, 1), (0, 2, 1), (0, 3, 1), (0, 4, 1), (1, 4, 1), (2, 4, 1), (3, 4, 1), (4, 4, 0)]
Total Cost:  0.9299999999999999
Time spent:  8.094725131988525

Alpha:  0.6  Ypsillon:  0.2
Chosen path:  [(0, 0, 0), (0, 1, 1), (0, 2, 1), (0, 3, 1), (0, 4, 1), (1, 4, 1), (2, 4, 1), (3, 4, 1), (4, 4, 0)]
Total Cost:  0.9299999999999999
Time spent:  8.267765998840332

Alpha:  0.6  Ypsillon:  0.3
Chosen path:  [(0, 0, 0), (0, 1, 1), (0, 2, 1), (0, 3, 1), (0, 4, 1), (1, 4, 1), (2, 4, 1), (3, 4, 1), (4, 4, 0)]
Total Cost:  0.9299999999999999
Time spent:  8.168173789978027

Alpha:  0.6  Ypsillon:  0.4
Chosen path:  [(0, 0, 0), (0, 1, 1), (0, 2, 1), (0, 3, 1), (0, 4, 1), (1, 4, 1), (2, 4, 1), (3, 4, 1), (4, 4, 0)]
Total Cost:  0.9299999999999999
Time spent:  8.164874076843262

Alpha:  0.6  Ypsillon:  0.5
Chosen path:  [(0, 0, 0), (0, 1, 1), (0, 2, 1), (0, 3, 1), (0, 4, 1), (1, 4, 1), (2, 4, 1), (3, 4, 1), (4, 4, 0)]
Total Cost:  0.9299999999999999
Time spent:  8.014326095581055

Alpha:  0.6  Ypsillon:  0.6
Chosen path:  [(0, 0, 0), (0, 1, 1), (0, 2, 1), (0, 3, 1), (0, 4, 1), (1, 4, 1), (2, 4, 1), (3, 4, 1), (4, 4, 0)]
Total Cost:  0.9299999999999999
Time spent:  7.98238205909729

Alpha:  0.6  Ypsillon:  0.7
Chosen path:  [(0, 0, 0), (0, 1, 1), (0, 2, 1), (0, 3, 1), (0, 4, 1), (1, 4, 1), (2, 4, 1), (3, 4, 1), (4, 4, 0)]
Total Cost:  0.9299999999999999
Time spent:  7.878278017044067

Alpha:  0.6  Ypsillon:  0.8
Chosen path:  [(0, 0, 0), (0, 1, 1), (0, 2, 1), (0, 3, 1), (0, 4, 1), (1, 4, 1), (2, 4, 1), (3, 4, 1), (4, 4, 0)]
Total Cost:  0.9299999999999999
Time spent:  7.969316005706787

Alpha:  0.6  Ypsillon:  0.9
Chosen path:  [(0, 0, 0), (0, 1, 1), (0, 2, 1), (0, 3, 1), (0, 4, 1), (1, 4, 1), (2, 4, 1), (3, 4, 1), (4, 4, 0)]
Total Cost:  0.9299999999999999
Time spent:  9.235981941223145

Alpha:  0.6  Ypsillon:  0.95
Chosen path:  [(0, 0, 0), (0, 1, 1), (0, 2, 1), (0, 3, 1), (0, 4, 1), (1, 4, 1), (2, 4, 1), (3, 4, 1), (4, 4, 0)]
Total Cost:  0.9299999999999999
Time spent:  8.114888906478882

Alpha:  0.6  Ypsillon:  1
Chosen path:  [(0, 0, 0), (0, 1, 1), (0, 2, 1), (0, 3, 1), (0, 4, 1), (1, 4, 1), (2, 4, 1), (3, 4, 1), (4, 4, 0)]
Total Cost:  0.9299999999999999
Time spent:  7.9175028800964355

Alpha:  0.7  Ypsillon:  0.1
Chosen path:  [(0, 0, 0), (0, 1, 1), (0, 2, 1), (0, 3, 1), (0, 4, 1), (1, 4, 1), (2, 4, 1), (3, 4, 1), (4, 4, 0)]
Total Cost:  0.9299999999999999
Time spent:  7.954210996627808

Alpha:  0.7  Ypsillon:  0.2
Chosen path:  [(0, 0, 0), (0, 1, 1), (0, 2, 1), (0, 3, 1), (0, 4, 1), (1, 4, 1), (2, 4, 1), (3, 4, 1), (4, 4, 0)]
Total Cost:  0.9299999999999999
Time spent:  8.146779775619507

Alpha:  0.7  Ypsillon:  0.3
Chosen path:  [(0, 0, 0), (0, 1, 1), (0, 2, 1), (0, 3, 1), (0, 4, 1), (1, 4, 1), (2, 4, 1), (3, 4, 1), (4, 4, 0)]
Total Cost:  0.9299999999999999
Time spent:  8.23833703994751

Alpha:  0.7  Ypsillon:  0.4
Chosen path:  [(0, 0, 0), (0, 1, 1), (0, 2, 1), (0, 3, 1), (0, 4, 1), (1, 4, 1), (2, 4, 1), (3, 4, 1), (4, 4, 0)]
Total Cost:  0.9299999999999999
Time spent:  8.333774089813232

Alpha:  0.7  Ypsillon:  0.5
Chosen path:  [(0, 0, 0), (0, 1, 1), (0, 2, 1), (0, 3, 1), (0, 4, 1), (1, 4, 1), (2, 4, 1), (3, 4, 1), (4, 4, 0)]
Total Cost:  0.9299999999999999
Time spent:  8.200287818908691

Alpha:  0.7  Ypsillon:  0.6
Chosen path:  [(0, 0, 0), (0, 1, 1), (0, 2, 1), (0, 3, 1), (0, 4, 1), (1, 4, 1), (2, 4, 1), (3, 4, 1), (4, 4, 0)]
Total Cost:  0.9299999999999999
Time spent:  8.53626823425293

Alpha:  0.7  Ypsillon:  0.7
Chosen path:  [(0, 0, 0), (0, 1, 1), (0, 2, 1), (0, 3, 1), (0, 4, 1), (1, 4, 1), (2, 4, 1), (3, 4, 1), (4, 4, 0)]
Total Cost:  0.9299999999999999
Time spent:  8.226284742355347

Alpha:  0.7  Ypsillon:  0.8
Chosen path:  [(0, 0, 0), (0, 1, 1), (0, 2, 1), (0, 3, 1), (0, 4, 1), (1, 4, 1), (2, 4, 1), (3, 4, 1), (4, 4, 0)]
Total Cost:  0.9299999999999999
Time spent:  8.121819972991943

Alpha:  0.7  Ypsillon:  0.9
Chosen path:  [(0, 0, 0), (0, 1, 1), (0, 2, 1), (0, 3, 1), (0, 4, 1), (1, 4, 1), (2, 4, 1), (3, 4, 1), (4, 4, 0)]
Total Cost:  0.9299999999999999
Time spent:  7.974932909011841

Alpha:  0.7  Ypsillon:  0.95
Chosen path:  [(0, 0, 0), (0, 1, 1), (0, 2, 1), (0, 3, 1), (0, 4, 1), (1, 4, 1), (2, 4, 1), (3, 4, 1), (4, 4, 0)]
Total Cost:  0.9299999999999999
Time spent:  8.165245056152344

Alpha:  0.7  Ypsillon:  1
Chosen path:  [(0, 0, 0), (0, 1, 1), (0, 2, 1), (0, 3, 1), (0, 4, 1), (1, 4, 1), (2, 4, 1), (3, 4, 1), (4, 4, 0)]
Total Cost:  0.9299999999999999
Time spent:  9.18661880493164

Alpha:  0.8  Ypsillon:  0.1
Chosen path:  [(0, 0, 0), (0, 1, 1), (0, 2, 1), (0, 3, 1), (0, 4, 1), (1, 4, 1), (2, 4, 1), (3, 4, 1), (4, 4, 0)]
Total Cost:  0.9299999999999999
Time spent:  7.804814100265503

Alpha:  0.8  Ypsillon:  0.2
Chosen path:  [(0, 0, 0), (0, 1, 1), (0, 2, 1), (0, 3, 1), (0, 4, 1), (1, 4, 1), (2, 4, 1), (3, 4, 1), (4, 4, 0)]
Total Cost:  0.9299999999999999
Time spent:  8.238245010375977

Alpha:  0.8  Ypsillon:  0.3
Chosen path:  [(0, 0, 0), (0, 1, 1), (0, 2, 1), (0, 3, 1), (0, 4, 1), (1, 4, 1), (2, 4, 1), (3, 4, 1), (4, 4, 0)]
Total Cost:  0.9299999999999999
Time spent:  8.735629081726074

Alpha:  0.8  Ypsillon:  0.4
Chosen path:  [(0, 0, 0), (0, 1, 1), (0, 2, 1), (0, 3, 1), (0, 4, 1), (1, 4, 1), (2, 4, 1), (3, 4, 1), (4, 4, 0)]
Total Cost:  0.9299999999999999
Time spent:  8.262773036956787

Alpha:  0.8  Ypsillon:  0.5
Chosen path:  [(0, 0, 0), (0, 1, 1), (0, 2, 1), (0, 3, 1), (0, 4, 1), (1, 4, 1), (2, 4, 1), (3, 4, 1), (4, 4, 0)]
Total Cost:  0.9299999999999999
Time spent:  8.627047061920166

Alpha:  0.8  Ypsillon:  0.6
Chosen path:  [(0, 0, 0), (0, 1, 1), (0, 2, 1), (0, 3, 1), (0, 4, 1), (1, 4, 1), (2, 4, 1), (3, 4, 1), (4, 4, 0)]
Total Cost:  0.9299999999999999
Time spent:  8.470901012420654

Alpha:  0.8  Ypsillon:  0.7
Chosen path:  [(0, 0, 0), (0, 1, 1), (0, 2, 1), (0, 3, 1), (0, 4, 1), (1, 4, 1), (2, 4, 1), (3, 4, 1), (4, 4, 0)]
Total Cost:  0.9299999999999999
Time spent:  8.299255847930908

Alpha:  0.8  Ypsillon:  0.8
Chosen path:  [(0, 0, 0), (0, 1, 1), (0, 2, 1), (0, 3, 1), (0, 4, 1), (1, 4, 1), (2, 4, 1), (3, 4, 1), (4, 4, 0)]
Total Cost:  0.9299999999999999
Time spent:  7.882293701171875

Alpha:  0.8  Ypsillon:  0.9
Chosen path:  [(0, 0, 0), (0, 1, 1), (0, 2, 1), (0, 3, 1), (0, 4, 1), (1, 4, 1), (2, 4, 1), (3, 4, 1), (4, 4, 0)]
Total Cost:  0.9299999999999999
Time spent:  8.226078987121582

Alpha:  0.8  Ypsillon:  0.95
Chosen path:  [(0, 0, 0), (0, 1, 1), (0, 2, 1), (0, 3, 1), (0, 4, 1), (1, 4, 1), (2, 4, 1), (3, 4, 1), (4, 4, 0)]
Total Cost:  0.9299999999999999
Time spent:  9.72024393081665

Alpha:  0.8  Ypsillon:  1
Chosen path:  [(0, 0, 0), (0, 1, 1), (0, 2, 1), (0, 3, 1), (0, 4, 1), (1, 4, 1), (2, 4, 1), (3, 4, 1), (4, 4, 0)]
Total Cost:  0.9299999999999999
Time spent:  8.23101019859314

Alpha:  0.9  Ypsillon:  0.1
Chosen path:  [(0, 0, 0), (0, 1, 1), (0, 2, 1), (0, 3, 1), (0, 4, 1), (1, 4, 1), (2, 4, 1), (3, 4, 1), (4, 4, 0)]
Total Cost:  0.9299999999999999
Time spent:  7.789011240005493

Alpha:  0.9  Ypsillon:  0.2
Chosen path:  [(0, 0, 0), (0, 1, 1), (0, 2, 1), (0, 3, 1), (0, 4, 1), (1, 4, 1), (2, 4, 1), (3, 4, 1), (4, 4, 0)]
Total Cost:  0.9299999999999999
Time spent:  7.794901132583618

Alpha:  0.9  Ypsillon:  0.3
Chosen path:  [(0, 0, 0), (0, 1, 1), (0, 2, 1), (0, 3, 1), (0, 4, 1), (1, 4, 1), (2, 4, 1), (3, 4, 1), (4, 4, 0)]
Total Cost:  0.9299999999999999
Time spent:  8.290688037872314

Alpha:  0.9  Ypsillon:  0.4
Chosen path:  [(0, 0, 0), (0, 1, 1), (0, 2, 1), (0, 3, 1), (0, 4, 1), (1, 4, 1), (2, 4, 1), (3, 4, 1), (4, 4, 0)]
Total Cost:  0.9299999999999999
Time spent:  7.888515949249268

Alpha:  0.9  Ypsillon:  0.5
Chosen path:  [(0, 0, 0), (0, 1, 1), (0, 2, 1), (0, 3, 1), (0, 4, 1), (1, 4, 1), (2, 4, 1), (3, 4, 1), (4, 4, 0)]
Total Cost:  0.9299999999999999
Time spent:  7.9064717292785645

Alpha:  0.9  Ypsillon:  0.6
Chosen path:  [(0, 0, 0), (0, 1, 1), (0, 2, 1), (0, 3, 1), (0, 4, 1), (1, 4, 1), (2, 4, 1), (3, 4, 1), (4, 4, 0)]
Total Cost:  0.9299999999999999
Time spent:  7.788174152374268

Alpha:  0.9  Ypsillon:  0.7
Chosen path:  [(0, 0, 0), (0, 1, 1), (0, 2, 1), (0, 3, 1), (0, 4, 1), (1, 4, 1), (2, 4, 1), (3, 4, 1), (4, 4, 0)]
Total Cost:  0.9299999999999999
Time spent:  7.876431941986084

Alpha:  0.9  Ypsillon:  0.8
Chosen path:  [(0, 0, 0), (0, 1, 1), (0, 2, 1), (0, 3, 1), (0, 4, 1), (1, 4, 1), (2, 4, 1), (3, 4, 1), (4, 4, 0)]
Total Cost:  0.9299999999999999
Time spent:  7.931440830230713

Alpha:  0.9  Ypsillon:  0.9
Chosen path:  [(0, 0, 0), (0, 1, 1), (0, 2, 1), (0, 3, 1), (0, 4, 1), (1, 4, 1), (2, 4, 1), (3, 4, 1), (4, 4, 0)]
Total Cost:  0.9299999999999999
Time spent:  7.675755023956299

Alpha:  0.9  Ypsillon:  0.95
Chosen path:  [(0, 0, 0), (0, 1, 1), (0, 2, 1), (0, 3, 1), (0, 4, 1), (1, 4, 1), (2, 4, 1), (3, 4, 1), (4, 4, 0)]
Total Cost:  0.9299999999999999
Time spent:  7.570648193359375

Alpha:  0.9  Ypsillon:  1
Chosen path:  [(0, 0, 0), (0, 1, 1), (0, 2, 1), (0, 3, 1), (0, 4, 1), (1, 4, 1), (2, 4, 1), (3, 4, 1), (4, 4, 0)]
Total Cost:  0.9299999999999999
Time spent:  7.785629034042358

Alpha:  1  Ypsillon:  0.1
Chosen path:  [(0, 0, 0), (0, 1, 1), (0, 2, 1), (0, 3, 1), (0, 4, 1), (1, 4, 1), (2, 4, 1), (3, 4, 1), (4, 4, 0)]
Total Cost:  0.9299999999999999
Time spent:  8.039339065551758

Alpha:  1  Ypsillon:  0.2
Chosen path:  [(0, 0, 0), (0, 1, 1), (0, 2, 1), (0, 3, 1), (0, 4, 1), (1, 4, 1), (2, 4, 1), (3, 4, 1), (4, 4, 0)]
Total Cost:  0.9299999999999999
Time spent:  7.656726121902466

Alpha:  1  Ypsillon:  0.3
Chosen path:  [(0, 0, 0), (0, 1, 1), (0, 2, 1), (0, 3, 1), (0, 4, 1), (1, 4, 1), (2, 4, 1), (3, 4, 1), (4, 4, 0)]
Total Cost:  0.9299999999999999
Time spent:  7.60698390007019

Alpha:  1  Ypsillon:  0.4
Chosen path:  [(0, 0, 0), (0, 1, 1), (0, 2, 1), (0, 3, 1), (0, 4, 1), (1, 4, 1), (2, 4, 1), (3, 4, 1), (4, 4, 0)]
Total Cost:  0.9299999999999999
Time spent:  7.580910921096802

Alpha:  1  Ypsillon:  0.5
Chosen path:  [(0, 0, 0), (0, 1, 1), (0, 2, 1), (0, 3, 1), (0, 4, 1), (1, 4, 1), (2, 4, 1), (3, 4, 1), (4, 4, 0)]
Total Cost:  0.9299999999999999
Time spent:  7.896839141845703

Alpha:  1  Ypsillon:  0.6
Chosen path:  [(0, 0, 0), (0, 1, 1), (0, 2, 1), (0, 3, 1), (0, 4, 1), (1, 4, 1), (2, 4, 1), (3, 4, 1), (4, 4, 0)]
Total Cost:  0.9299999999999999
Time spent:  7.718966960906982

Alpha:  1  Ypsillon:  0.7
Chosen path:  [(0, 0, 0), (0, 1, 1), (0, 2, 1), (0, 3, 1), (0, 4, 1), (1, 4, 1), (2, 4, 1), (3, 4, 1), (4, 4, 0)]
Total Cost:  0.9299999999999999
Time spent:  8.244304895401001

Alpha:  1  Ypsillon:  0.8
Chosen path:  [(0, 0, 0), (0, 1, 1), (0, 2, 1), (0, 3, 1), (0, 4, 1), (1, 4, 1), (2, 4, 1), (3, 4, 1), (4, 4, 0)]
Total Cost:  0.9299999999999999
Time spent:  7.783836126327515

Alpha:  1  Ypsillon:  0.9
Chosen path:  [(0, 0, 0), (0, 1, 1), (0, 2, 1), (0, 3, 1), (0, 4, 1), (1, 4, 1), (2, 4, 1), (3, 4, 1), (4, 4, 0)]
Total Cost:  0.9299999999999999
Time spent:  8.027406215667725

Alpha:  1  Ypsillon:  0.95
Chosen path:  [(0, 0, 0), (0, 1, 1), (0, 2, 1), (0, 3, 1), (0, 4, 1), (1, 4, 1), (2, 4, 1), (3, 4, 1), (4, 4, 0)]
Total Cost:  0.9299999999999999
Time spent:  7.909441947937012

Alpha:  1  Ypsillon:  1
Chosen path:  [(0, 0, 0), (0, 1, 1), (0, 2, 1), (0, 3, 1), (0, 4, 1), (1, 4, 1), (2, 4, 1), (3, 4, 1), (4, 4, 0)]
Total Cost:  0.9299999999999999
Time spent:  7.792933225631714
